<svg width="16" height="16" viewBox="0 0 16 16" version="1.1" xmlns="http://www.w3.org/2000/svg" xmlns:xlink="http://www.w3.org/1999/xlink">
<g id="Canvas" fill="none">
<g id="close-icon">
<path d="M 5.65674 7.07104L 0 12.7279L 1.41406 14.1421L 7.0708 8.48517L 12.728 14.1422L 14.1421 12.728L 8.48535 7.07104L 14.1421 1.41418L 12.728 0L 7.0708 5.65698L 1.41406 6.10352e-05L 0 1.41425L 5.65674 7.07104Z" transform="translate(0.928711 0.928955)" fill="#D93838"/>
</g>
</g>
</svg>
