<svg width="14" height="18" viewBox="0 0 14 18" version="1.1" xmlns="http://www.w3.org/2000/svg" xmlns:xlink="http://www.w3.org/1999/xlink">
<g id="Canvas" fill="none">
<g id="icon">
<path d="M 10 7L 3 7L 3 8L 10 8L 10 7Z" fill="#D93838"/>
<path d="M 3 10L 10 10L 10 11L 3 11L 3 10Z" fill="#D93838"/>
<path d="M 7 13L 3 13L 3 14L 7 14L 7 13Z" fill="#D93838"/>
<path fill-rule="evenodd" clip-rule="evenodd" d="M 14 5L 9 0L 0 0L 0 18L 14 18L 14 5ZM 2 2L 2 16L 12 16L 12 6L 8 6L 8 2L 2 2Z" fill="#D93838"/>
</g>
</g>
</svg>
